{
  "project_info": {
    "project_number": "841171576886",
    "firebase_url": "https://flutter-eda59.firebaseio.com",
    "project_id": "flutter-eda59",
    "storage_bucket": "flutter-eda59.appspot.com"
  },
  "client": [
    {
      "client_info": {
        "mobilesdk_app_id": "1:841171576886:android:1fabffbc6db4d9ac",
        "android_client_info": {
          "package_name": "com.example.catatan_harian"
        }
      },
      "oauth_client": [
        {
          "client_id": "841171576886-m9vmobl0lpekf1t2rntcl21sfkig1kbu.apps.googleusercontent.com",
          "client_type": 1,
          "android_info": {
            "package_name": "com.example.catatan_harian",
            "certificate_hash": "2defebb1d38ac59235203096d5a3e1496cdef565"
          }
        },
        {
          "client_id": "841171576886-4cieiofcle4e624nobml3ilvouln48oa.apps.googleusercontent.com",
          "client_type": 3
        }
      ],
      "api_key": [
        {
          "current_key": "AIzaSyCmyPYR3OmZXItjWngypVk5IjlIrjwc2hw"
        }
      ],
      "services": {
        "appinvite_service": {
          "other_platform_oauth_client": [
            {
              "client_id": "841171576886-4cieiofcle4e624nobml3ilvouln48oa.apps.googleusercontent.com",
              "client_type": 3
            }
          ]
        }
      }
    }
  ],
  "configuration_version": "1"
}